latitude,longitude,slope
40.4,-105.83333,0.1130116959064327
33.8,-109.05,-0.016959064327485382
45.81667,-110.9,-0.5583333333333332
61.75267,-150.05,-0.01944444444444447
44.96987,-113.43472,-0.17686480186480186
42.14546,-113.73157,-0.04692982456140349
47.35833,-121.56947,0.17815910335819327
43.8153,-113.91717,0.0077485380116959195
41.08333,-106.16667,-0.04225146198830408
50.06667,-118.35,-0.5818963581660603
48.92739,-121.19881,-0.47324561403508747
51.709,-116.47875,-0.11491228070175441
45.132,-112.44957,0.09120046620046621
60.13333,-134.73333,0.0017543859649122766
50.63139,-115.27944,0.5108187134502924
43.85722,-110.58445,0.10906432748538014
38.15,-119.61667,-0.6771929824561403
48.95832,-114.42037,-0.001608187134502923
36.46667,-105.18333,-0.20833333333333331
41.78333,-119.61667,0.03793323750199648
43.02803,-118.41227,-0.0810282856696359
39.21723,-114.95737,-0.023529067041725266
45.56311,-110.92929,-0.07748538011695906
47.76667,-121.01667,-0.7589285714285716
36.30805,-115.69664,-0.06552162849872771
67.56667,-139.85,-0.1884502923976608
60.58333,-129.18333,-0.2331349206349206
46.44593,-113.05823,0.2671911421911422
38.828,-120.037,-0.24137426900584794
33.324,-108.6414,-0.22765567765567765
37.265,-119.108,-0.2557017543859649
49.72861,-118.98278,0.15979532163742688
45.48023,-112.03747,0.01726912871373264
41.89202,-120.75468,0.04885057471264368
49.55917,-116.08472,0.09672619047619048
37.93333,-107.8,0.030388471177944857
42.12867,-114.37557,-0.019883040935672506
62.33257,-147.33257,-0.04362510554461017
38.18333,-119.61667,-0.06725146198830413
48.66667,-115.91667,-0.2509920634920634
60.58333,-133.08333,-0.06739766081871346
38.97485,-114.25147,-0.02616959064327485
40.36667,-106.76667,-0.058040935672514636
45.4321,-109.93915,0.16812354312354313
50.18639,-118.03389,0.16557740858376094
40.4467,-115.5114,-0.058040935672514636
60.67667,-149.75167,-0.20990461590870385
44.61088,-111.14998,0.3115079365079365
45.15,-116.0,-0.03636363636363622
42.56667,-105.96667,0.19722222222222227
46.43643,-112.29167,0.2179824561403508
46.21965,-110.4306,0.15687134502923977
61.785,-149.27167,-0.17733918128654966
43.175,-122.87538,-0.20448743126472899
65.29575,-146.35997,0.004385964912280689
55.66563,-131.10155,0.15714285714285714
48.21667,-114.55,-0.011446886446886411
63.02033,-145.48983,0.04561403508771931
43.21666,-110.43333,0.21929824561403508
48.16667,-113.93333,0.2666666666666666
60.1,-130.93333,-0.36111111111111116
47.3166,-121.5166,0.07832035857513564
41.14792,-120.25168,-0.023684210526315797
61.96903,-151.19867,-0.2513157894736842
36.40868,-105.3304,-0.09707602339181287
40.2,-105.6,0.15307017543859647
47.9701,-123.48007,0.23596491228070168
45.08467,-117.48167,-0.27226463104325693
39.4155,-111.2491,-0.10248538011695904
35.33333,-111.7,0.4445970695970695
64.95,-138.28333,0.051587301587301564
39.36,-120.5,-0.33859649122807006
40.602,-111.584,0.03289473684210529
46.25268,-110.44428,0.1574561403508772
46.18367,-113.8533,0.15
41.99651,-123.54767,-0.1395604395604396
45.06235,-109.94488,-0.4464285714285714
65.09583,-146.70633,-0.05365497076023389
47.70828,-116.50358,0.06666666666666668
48.49633,-114.35613,0.3166666666666667
37.917,-119.253,0.06505847953216377
41.25,-105.41667,0.0975146198830409
35.35,-111.65,0.7083333333333335
67.09017,-143.408,-0.0030966767371601225
49.55917,-119.98278,0.32001594009489914
50.01695,-119.74555,0.19152046783625734
40.36667,-106.1,-0.0343567251461988
34.45,-111.38333,-0.0948830409356725
61.08035,-146.30207,-1.1187134502923977
45.18333,-119.25,nan
46.88343,-121.28042,-0.035964912280701755
44.64602,-111.31183,0.10380116959064321
40.03333,-107.28333,-0.08247549019607843
46.78333,-109.53333,0.03845029239766082
48.9723,-115.95337,-0.21111111111111105
43.63083,-109.9225,0.11871345029239766
46.49597,-115.7957,-0.14848856209150327
62.6055,-150.85883,-0.9640350877192981
45.78658,-118.10815,-0.722161172161172
37.72345,-112.84175,-0.19181286549707602
60.60833,-149.06313,-5.745238095238095
66.91467,-151.53318,-0.39558383233532934
48.13088,-113.02317,0.2736111111111112
40.03333,-105.56667,0.627046783625731
46.4338,-113.06208,-0.07821637426900585
38.78903,-111.6887,-0.027192982456140363
47.45272,-112.82807,0.04865967365967365
46.32668,-115.06915,-0.08792156862745101
43.764,-116.097,-0.24546783625730986
48.28333,-117.58333,0.1121794871794872
49.10167,-117.88111,0.39853801169590636
44.09988,-110.73683,0.26023391812865504
43.30583,-122.15932,-0.21607051609606545
43.51772,-114.80217,-0.07076023391812865
58.36967,-155.38733,0.108167495854063
44.53778,-107.50111,0.16403508771929823
61.91567,-146.90817,-0.2429824561403509
47.68333,-113.95,0.11666666666666697
47.33178,-113.5821,0.06535087719298247
45.9218,-112.7684,0.08888888888888886
40.6,-111.58333,3.0
39.8,-105.78333,-0.13150005765017875
41.23483,-120.79467,-0.0855263157894737
60.35,-136.71667,-0.04912280701754385
38.94557,-115.37922,-0.043062476928755984
38.95,-105.53333,0.006898636763412486
40.55017,-110.3529,-0.030594405594405582
46.81667,-116.88333,-0.09848484848484847
62.93967,-152.2645,-0.159433097669547
62.03333,-136.23333,-0.0347953216374269
46.88293,-113.32228,0.1011904761904762
45.52408,-111.8857,0.09751461988304096
49.23333,-121.58333,-0.0782051282051283
40.67933,-110.94877,0.09795321637426897
60.76913,-149.68895,-0.17378640776699034
61.4625,-143.83333,0.08961988304093566
39.5,-106.75,-0.004239766081871338
49.61,-116.66084,0.6513777381306374
61.23,-149.58333,-0.10833333333333334
48.81822,-121.19144,-0.05336257309941519
50.66083,-118.93195,-1.740859501695415
49.81333,-120.0,0.17938596491228068
38.61933,-111.65052,0.2737373737373738
38.99651,-115.42457,-0.06565948165255323
49.86417,-119.98278,0.1122598162071846
45.51745,-111.99442,0.05787550567662789
44.46014,-111.14566,0.09722222222222224
42.22257,-120.29245,-0.19275333857030644
48.86667,-116.75,-0.05479032751760023
64.85168,-146.21215,-0.2082245430809399
63.5945,-148.0225,-0.17621870882740448
42.78735,-111.43125,-0.06842105263157894
39.76666,-105.78333,0.09926900584795323
62.596,-150.23417,-0.3409356725146198
48.19273,-117.43277,-0.19590643274853806
39.32067,-111.4879,-0.08099415204678363
61.02083,-151.45,-0.017198679141441922
52.23333,-118.23333,nan
44.9591,-118.22668,-0.10714285714285707
36.58203,-105.45611,-0.18918128654970762
48.68125,-119.87224,0.017983269862969106
48.43726,-119.29799,0.07061403508771934
60.19033,-149.62117,-0.44634502923976616
43.2,-122.85,-0.048293665785165585
41.29428,-115.78742,-0.02751114989334884
35.35,-111.65,0.09999999999999983
62.275,-146.51667,-0.05994152046783626
60.95842,-149.08858,-1.9522315202231522
64.1371,-141.3386,0.0019005847953216313
49.61,-116.67778,0.06470396612101961
37.85,-107.16667,-0.09956140350877193
45.92242,-113.72588,0.22534602076124566
43.85805,-110.27667,0.15116959064327487
48.58334,-121.61667,0.3948078583765113
43.20603,-111.856,-0.058771929824561385
40.08333,-106.55,0.1276315789473684
44.68333,-107.44417,0.07090643274853801
48.20161,-114.51495,0.07558479532163741
62.32167,-150.094,-0.162719298245614
42.35,-116.96667,-0.11996252767841939
43.58327,-113.67818,0.05350877192982453
66.7975,-146.698,0.014556754988550868
48.04376,-118.07636,-0.15878006436314362
42.13333,-117.1799,0.01091813934592728
61.207,-145.49583,-0.03801169590643269
39.83333,-105.75,-0.09298245614035087
43.66815,-110.59572,0.09078947368421054
45.98797,-120.67734,-0.09417475728155343
48.5712,-115.44573,0.11190977092099108
43.94583,-110.44677,0.004239766081871357
39.88837,-105.89031,0.10146198830409361
43.65,-113.85,-0.752020202020202
51.44056,-116.35584,0.26535087719298245
62.62083,-141.97167,-0.15788398692810454
35.33333,-111.7,0.046345029239766106
46.414,-113.43095,0.07043650793650792
43.66223,-114.40523,-0.0074561403508772075
63.9,-144.91667,-0.031578947368421074
66.20417,-151.64433,0.1556776556776557
42.0691,-122.61282,0.018897973088059964
39.18118,-120.2503,0.10394736842105266
48.02445,-114.41077,-0.05862573099415205
44.15556,-104.32361,-0.05584795321637428
44.47445,-111.2151,0.031578947368421026
36.615,-118.377,0.14356725146198826
39.91998,-111.06002,-0.008853201564751912
43.11658,-116.87715,-0.22089314194577353
37.01667,-106.45,-0.030509406303444894
44.69243,-121.66207,-0.49507397224404287
63.20267,-145.6305,0.022660818713450267
62.79583,-141.293,-0.23202614379084965
58.3125,-134.55917,-0.1426921343249944
35.96667,-111.96667,-0.008643009442583005
33.8,-109.15,-0.03143832864604258
43.0,-116.73333,0.3689393939393941
49.61,-119.42362,0.10701754385964908
51.23722,-117.50833,0.3244152046783624
50.10167,-119.27111,0.06184210526315791
44.36667,-116.33333,-0.9523809523809522
38.97098,-114.27697,-0.008040935672514623
61.17683,-145.694,-0.08888888888888886
44.28888,-116.12928,-0.16666666666666669
65.4562,-141.56133,nan
40.51967,-105.89333,0.10672514619883039
44.2,-104.0,0.03698830409356725
47.20173,-121.77971,-0.5160083606813564
40.93333,-106.98333,0.018859649122807
48.62402,-114.5264,0.10029239766081868
41.24735,-111.4127,0.12803030303030305
48.2922,-116.5533,-0.038419043792687825
50.2,-114.55,0.19333400294629696
61.10133,-146.2125,-0.33479532163742687
61.8055,-147.48333,-0.14809941520467837
51.63333,-115.75,-0.029678362573099415
49.11861,-119.67778,0.19707602339181288
41.4,-106.36667,0.25423976608187143
63.30503,-147.64888,-0.30307017543859643
40.592,-111.638,-0.08552631578947373
45.10431,-121.61247,-0.19894057955479327
39.93333,-105.73333,-0.017251461988304084
46.8,-121.73333,nan
64.7923,-141.2063,-0.33398778359511344
48.17478,-109.64728,-0.02558479532163743
43.97444,-104.05528,-0.009210526315789471
66.57802,-145.20172,-0.08230994152046785
48.37383,-119.06105,0.0526315789473684
45.40957,-112.95927,-0.6761904761904762
47.75,-121.03333,-0.8482142857142856
40.65802,-115.43415,-0.11827485380116956
59.67367,-150.6875,nan
48.31967,-113.35833,0.13947368421052625
46.0896,-110.43363,-0.16666666666666652
60.71667,-135.06667,-0.006286549707602341
41.31667,-106.5,0.019736842105263178
39.3019,-111.45277,-0.01622807017543861
38.693,-119.998,-0.24809941520467838
61.789,-149.283,-0.2182748538011696
45.03665,-110.60805,0.08449528672427338
66.5785,-151.63883,-0.13856990962254115
36.27325,-115.67467,-0.10620511669658889
64.0683,-141.9549,-0.029532163742690055
42.38005,-112.96432,-0.05862573099415205
46.35613,-112.26176,0.09728867623604463
51.50834,-118.55917,-0.2099742147210501
46.9751,-115.0349,0.43781094527363196
65.566,-147.422,-0.05321637426900585
45.08333,-121.75,nan
37.83333,-107.88333,-0.057309941520467846
35.88333,-109.25,-0.02529239766081871
44.40057,-111.89473,-0.10804093567251463
49.72861,-117.98278,0.5928362573099414
42.14013,-111.62592,-0.005701754385964898
42.64694,-108.86889,0.17207602339181285
49.99972,-119.81333,0.1600877192982456
42.64242,-120.93785,-0.08139097744360901
40.66667,-105.61667,-0.009941520467836262
44.6154,-112.73892,0.2217365967365967
50.76667,-122.2,0.17708333333333334
48.15,-113.1,0.41177462887989214
48.82607,-113.71647,-0.171789205839025
35.33333,-108.45,-0.020906432748538005
66.45,-136.71667,-0.042105263157894715
37.93333,-108.4,-0.16944444444444443
61.93683,-150.98267,0.004545454545454586
52.80667,-118.08944,0.17850877192982456
46.87518,-113.36552,0.06739766081871344
41.96833,-111.59683,-0.2282051282051282
59.74515,-151.25983,-0.810682893847194
51.57611,-118.77944,0.3785087719298245
46.27368,-113.164,0.1171679197994988
44.26778,-110.62612,0.11681286549707609
40.28333,-105.76667,0.016228070175438623
34.05,-109.5,-0.06461988304093567
36.41168,-105.33345,-0.08698830409356724
62.66667,-131.66667,0.015240306648975376
41.57872,-115.93182,-0.06988304093567252
46.87056,-121.53192,-0.7312885802469136
36.21667,-112.06667,-0.10116959064327484
62.33333,-133.38333,-0.11363636363636365
44.45615,-113.30097,0.06564327485380116
46.46523,-113.39358,0.11069340016708436
44.67778,-121.69228,-0.5431308375440209
39.35,-106.35,0.11637543023563675
42.0691,-122.61282,-0.008564345278341216
47.91568,-113.47413,0.09122807017543857
43.62728,-107.18138,nan
44.5932,-111.8168,-0.26242690058479534
60.11667,-128.81667,-0.34226190476190477
36.01667,-106.8,-0.16636904761904756
42.26476,-111.60044,0.07324561403508768
41.53333,-116.03333,-0.035907504363001747
46.99523,-113.92664,1.138459488272921
61.07617,-151.43833,-0.08230994152046782
39.91667,-105.76667,nan
43.54056,-109.74722,0.21228070175438596
63.6995,-156.92283,-0.23487824037706206
62.28333,-129.95,-0.04108187134502925
42.80833,-110.89528,0.014619883040935665
62.40083,-147.47267,-0.17456140350877195
37.127,-118.47,-0.45219298245614026
61.37728,-148.99917,0.03980891719745218
50.06778,-119.69473,0.16067139315047263
48.94862,-120.9328,0.07309941520467839
42.72778,-108.85111,0.08128654970760234
40.86208,-115.22078,-0.06063122923588039
52.56667,-118.95,-13.749999999999996
60.5194,-150.1833,-0.1289473684210526
36.30525,-115.6748,-0.09322686487210387
46.50792,-113.87424,-0.1227941176470588
50.915,-115.61,-0.3652046783625732
63.98333,-132.3,-0.13362573099415204
36.63333,-105.18333,-0.08158746380514395
45.87395,-110.92783,-0.11944444444444441
47.35,-120.6833,-0.1716269841269841
38.86667,-107.03333,-0.028947368421052683
47.85,-117.01667,-1.9440993788819876
61.11667,-136.98333,0.2529761904761904
44.79317,-112.05645,0.2238095238095238
42.8712,-122.16815,1.0049603174603177
50.96583,-116.94889,0.10102339181286553
42.21844,-113.6738,0.0716374269005848
35.16667,-108.18333,-0.05614035087719298
44.85,-113.83333,0.3035714285714286
50.25417,-116.96584,-0.017543859649122816
46.98333,-114.98333,-0.1904761904761905
58.2845,-134.53133,-0.15233918128654972
61.10833,-145.82217,-0.245906432748538
49.72861,-116.01695,0.18888888888888883
40.15,-106.15,-0.1673976608187134
43.26667,-110.63333,-0.25
67.698,-149.725,-0.13918128654970763
48.56227,-115.391,0.02015221352770928
43.90129,-115.70731,-0.05818713450292398
49.97978,-119.01202,nan
47.68525,-113.92547,0.11622807017543861
45.91517,-113.41648,0.34752109704641354
64.578,-146.75617,0.16111111111111112
49.63431,-110.28808,0.07251461988304093
59.825,-151.13333,-0.2795321637426901
48.57443,-115.4079,0.13427800269905535
40.4,-106.6,0.4322750972074938
37.98333,-107.25,0.04956140350877194
46.69927,-112.55222,0.0723684210526316
45.34872,-121.52618,-0.6970574757789998
65.54933,-145.13567,-0.012719298245614024
48.66594,-121.5879,1.2737330478229834
39.10988,-119.88797,0.11900584795321638
47.23333,-120.31667,nan
47.77997,-121.6989,0.47646714188067574
48.30754,-114.84075,0.07308743169398907
40.61667,-105.81667,0.07602339181286549
47.98333,-120.56667,nan
58.54267,-155.7785,0.07555555555555556
63.72317,-148.9675,-0.172953216374269
36.26667,-115.75,nan
65.1,-144.93333,-1.2619047619047619
49.02728,-114.05294,0.47321428571428564
50.78333,-115.31667,0.13801169590643275
48.1426,-115.5541,0.03891941391941393
49.25417,-121.23722,0.07412280701754385
52.66853,-119.69101,0.9747807017543859
46.81563,-109.50047,0.1136363636363636
42.92545,-122.39723,0.10973863229502329
44.75,-110.7,-0.1529239766081871
42.66612,-111.43278,0.02646198830409359
45.26953,-110.45626,0.019211361014994262
44.39565,-118.0299,-0.0874309638339569
46.11667,-110.45,0.4738372093023256
42.16528,-120.24747,0.08304093567251461
42.71197,-109.41118,-0.247514619883041
40.5,-121.15,0.03492590700051101
44.07972,-107.1225,0.22997076023391813
38.88285,-119.97765,-0.01635155850792026
46.25567,-113.23402,0.07470760233918132
40.18505,-111.35937,-0.07714138286893704
39.31,-120.338,0.10774853801169594
62.5165,-150.94133,-0.6280701754385963
37.96667,-105.55,nan
48.00957,-112.82405,0.040204678362573104
45.45817,-118.39352,0.10846828609986509
38.51667,-106.33333,0.4753004595263343
45.43333,-121.7,-6.029761904761903
43.50152,-110.96705,0.31345029239766065
37.123,-118.545,0.5736842105263158
62.788,-148.45567,-0.11944444444444444
48.9,-118.4,-0.8749999999999999
41.32192,-116.33815,-0.038988095238095266
45.37917,-117.573,-0.3953216374269006
48.1702,-109.59975,-0.16038011695906432
43.72402,-111.35696,-0.03874269005847951
41.96667,-120.18333,nan
45.15785,-113.52535,-0.014277389277389307
39.38333,-106.2,0.7116271409749668
63.88333,-138.93333,-0.052631578947368404
60.49133,-154.32967,-0.3692390139335477
42.39947,-112.34563,-0.07884294068504595
42.73953,-123.17407,0.06878595688639356
48.85483,-119.95,0.06449948400412799
39.51667,-105.71667,-0.027485380116959057
60.72605,-150.47563,-0.08860153256704978
37.96667,-107.66667,0.0067251461988303935
51.08333,-115.78333,0.1305555555555556
36.4,-109.1,-0.04488304093567252
33.3304,-108.6439,-0.03443223443223444
59.58668,-135.19455,-0.39926900584795316
39.56667,-105.73333,0.07251461988304092
47.28788,-120.40642,-0.18351648351648356
47.91667,-112.78333,-0.007352941176470575
65.51067,-152.207,-0.04998692810457517
48.44423,-120.91418,-1.1445945945945948
38.51667,-106.33333,1.5184684684684686
40.8,-105.76667,0.9039473684210526
40.83878,-110.00523,-0.44696969696969696
44.14063,-118.32496,-0.1920797138477262
40.61667,-105.83333,0.06388888888888887
42.41655,-120.47043,-0.17207602339181285
43.74902,-110.0578,0.6486842105263158
42.28537,-122.37698,-0.0608143493061011
63.53667,-150.98593,-0.025730994152046778
36.122,-118.293,0.10892027390560037
42.45538,-120.19437,-0.06479458041958042
41.13333,-106.73333,0.011695906432748586
48.37007,-114.86688,0.12002923976608185
50.37278,-119.05084,-0.08249381406857546
65.93483,-149.8605,-0.11622807017543857
40.5123,-105.7656,0.20877192982456136
47.95203,-115.49348,-0.016081871345029242
52.77945,-119.27111,0.13122977346278317
40.99135,-111.81515,0.7380952380952379
65.3775,-147.73783,-0.05453216374269008
39.05,-108.08333,0.18685931424531632
43.41252,-111.60082,-0.06052631578947366
44.56953,-117.8425,-0.3368519245875884
32.9,-107.78333,0.051669744536780554
61.84617,-144.804,-0.11416799574694313
58.18603,-133.8322,-1.4366576819407004
60.65,-153.8,-0.24783732957216734
46.08835,-113.2681,0.11959064327485383
51.68333,-115.98333,-0.010087719298245607
48.75663,-113.82025,-0.09150326797385623
60.0,-132.11667,-0.08143274853801168
42.45,-122.1,0.4583333333333335
50.08472,-118.50833,0.17675438596491222
40.96535,-115.16458,-0.032309941520467865
63.32583,-157.80733,0.14945652173913043
63.75917,-147.94917,-0.1294564946397407
63.51667,-132.08333,-0.09707602339181286
47.08513,-112.68425,-0.11363636363636365
34.96667,-111.51667,-0.17032163742690057
47.78333,-120.86667,-0.275
37.48333,-106.83333,-0.6126225490196079
36.958,-118.445,0.6788866259334689
45.39612,-117.38925,0.23625730994152044
62.29957,-146.9881,-0.13418238108640587
44.36888,-110.57825,0.08771929824561404
39.483,-120.44,0.20570175438596489
44.34313,-118.08485,-0.1973684210526315
51.23722,-117.69473,0.17076023391812872
62.96667,-130.2,-0.11169590643274854
47.44847,-112.81428,0.041666666666666644
47.84135,-117.08885,-0.013450292397660824
63.91667,-135.4,-0.07368421052631577
59.69798,-150.71175,-1.6020467836257306
42.00751,-123.54834,0.14015151515151517
44.49178,-120.39322,-0.0793859649122807
42.23333,-120.28333,0.625
62.21733,-145.06167,-0.05277777777777779
44.78562,-111.71,0.11607142857142858
48.326,-114.64365,0.03289473684210526
41.94104,-113.83289,-0.03991228070175439
43.91358,-116.0133,-0.17763157894736842
63.61667,-135.86667,-0.058333333333333334
61.7,-130.76667,-0.01666666666666667
45.2719,-110.24903,-0.23809523809523805
63.2,-133.48333,-0.05014619883040932
42.85935,-121.00067,-0.14973346871430385
38.86755,-119.95652,0.010380116959064331
63.30167,-158.49333,-0.2887426900584795
39.06667,-106.61667,-0.02836257309941524
48.90902,-114.86298,0.057426597582037955
42.56083,-108.82972,0.09707602339181287
37.46667,-106.53333,-0.43318713450292395
45.78512,-112.5031,-0.07880116959064325
45.21305,-110.24623,0.3324592074592074
48.3549,-116.76855,0.007748538011695961
39.28333,-106.13333,0.09736842105263158
44.34608,-114.52703,0.24195906432748523
35.28333,-108.4,0.00470107307102708
48.19823,-120.89865,0.06877579092159555
49.21667,-121.23333,1.0476190476190474
60.66667,-135.13333,0.08187134502923973
61.15533,-150.0365,-0.09663742690058479
43.86667,-103.78333,0.019005847953216377
51.19435,-116.13421,-1.8500000000000003
48.847,-118.33128,0.04283625730994151
37.995,-119.78,-0.5535087719298246
45.44508,-110.01178,0.64937106918239
48.7,-115.96667,-0.471230158730159
40.86313,-110.38145,0.0018315018315018152
45.71582,-114.50118,0.20146520146520142
46.77962,-110.62165,0.22175141242937849
47.6922,-120.7405,-0.24939024390243905
34.75,-111.4,-0.023664386956090806
60.78333,-148.86667,-0.3788011695906432
62.63032,-150.77162,-0.7544529262086512
47.85562,-114.75841,-0.14225146198830407
43.27777,-111.88475,0.0915204678362573
45.27412,-111.42692,-2.2223360655737703
38.91667,-105.96667,0.008040935672514628
41.75093,-115.67798,-0.04312865497076024
46.1438,-114.5056,0.5416666666666667
34.11666,-109.85,0.03745318352059926
60.86667,-137.63333,0.08488049509176265
63.2625,-159.566,-0.20594396438858348
47.53469,-121.08592,-0.06038011695906437
39.38333,-106.05,0.07850877192982453
46.15,-116.76667,-0.35171568627450983
40.95833,-110.58255,0.044298245614035094
42.73767,-112.0615,-0.12412280701754383
63.94383,-145.39993,-0.0865754082612872
37.81667,-107.11667,-0.03245614035087719
44.8437,-111.58897,0.04924242424242422
40.8,-111.7,-0.10453216374269005
64.99402,-163.10487,0.09037654070161183
37.65,-105.46667,nan
43.66093,-111.01162,0.08070175438596493
55.60283,-131.26183,0.23201131281241782
36.06667,-105.45,-0.20175438596491227
39.3,-106.6,0.02186063980205021
60.25965,-149.34228,-1.4026104417670684
47.64382,-112.93677,0.021130952380952396
65.13883,-147.62083,0.10000000000000009
35.83333,-105.66667,-0.03143889134601209
44.97478,-118.11877,-0.16010408483896307
61.38965,-150.02182,-0.23745410036719708
47.3,-121.66667,-0.8583333333333333
46.79279,-110.67545,0.011299435028248584
45.69551,-113.94101,0.07572332730560578
39.81667,-106.05,nan
39.76667,-105.9,0.02529239766081874
62.6175,-150.80817,-0.763157894736842
61.2375,-151.475,-0.3726608187134503
59.35065,-151.84775,-0.6701698513800426
46.52557,-110.77242,0.05875144175317185
49.11861,-121.305,-0.03055555555555556
38.91667,-106.05,0.004692251232043625
48.759,-121.4985,1.9992038733996236
60.86667,-132.83333,-0.07485380116959066
37.75,-107.68333,nan
47.17902,-114.33368,-0.9429824561403509
42.42817,-116.84653,-0.24298245614035086
45.16842,-117.08631,0.525
47.38507,-115.66405,0.03213917145805692
51.31667,-116.21667,0.4059941520467837
39.355,-120.503,-0.22163742690058477
42.05,-122.86667,-0.5416666666666665
48.38333,-119.08333,nan
64.19633,-147.91683,-0.10617676389927701
49.1,-116.95,0.03406432748538013
43.26667,-115.35,nan
42.06677,-117.5494,-0.1430276198804839
62.01667,-137.06667,0.020467836257309954
45.69259,-113.96828,0.4166666666666665
40.06667,-107.01667,0.22124542124542118
44.41905,-116.43715,0.005944472832566853
43.575,-109.80139,0.19824561403508772
38.71,-120.042,-0.1469298245614036
41.367,-122.55,-0.2656432748538011
45.16507,-113.50099,-0.06309523809523811
47.93333,-121.63333,nan
49.55917,-116.05084,-0.058729595457771455
62.511,-143.16933,0.029678362573099405
41.3,-119.81667,nan
48.6939,-114.62025,0.12236842105263158
42.89988,-122.13642,-0.12690058479532154
47.2726,-113.75617,0.006286549707602249
42.52585,-111.97263,-0.07251461988304092
42.05,-118.36667,-0.08170995670995669
38.11667,-105.58333,nan
61.71667,-137.33333,0.010380116959064331
36.03333,-108.88333,-0.05833333333333332
33.9,-109.15,-0.01834111683231549
42.36667,-120.6,-0.008099131323454295
49.65753,-110.29267,0.03640350877192984
43.52368,-113.77327,-0.059064327485380125
38.503,-120.467,-0.14030829500936814
47.22221,-121.75829,-0.021950735001986486
39.13667,-111.50542,-0.031678460858027425
52.90595,-118.54633,-0.6392819706498953
44.12612,-110.83435,0.21023391812865494
42.56667,-105.86667,-1.0
37.66667,-107.01667,-0.1128654970760234
48.94965,-115.93848,0.47023809523809534
40.01667,-105.56667,0.04561403508771934
49.98278,-117.22028,0.1290623136553369
62.41667,-140.85,-0.01783625730994152
40.93333,-106.28333,-0.07373737373737374
37.125,-118.483,0.037373737373737184
40.8446,-110.66075,-0.48571428571428565
42.03597,-118.24008,0.01812865497076024
39.842,-122.95,-0.6157894736842107
39.30615,-117.11898,0.0031865945408195056
43.93206,-115.66515,-0.09546783625730998
41.5687,-115.03243,-0.08611111111111111
62.67717,-147.07833,-0.26605173319327735
42.03333,-123.55,-0.03861788617886179
36.93333,-105.26666,0.583333333333333
44.55,-104.31667,0.01564327485380117
48.72138,-120.66135,0.020505809979494277
65.25055,-146.1524,-0.23687264287786486
41.9156,-113.4115,-0.019590643274853818
64.2,-145.93333,0.09078947368421052
47.1573,-121.4233,0.7161616161616161
40.06667,-105.51667,0.1474358974358974
39.142,-120.225,-0.1394736842105263
47.08158,-112.72955,-0.06742424242424247
62.94583,-155.60833,-0.2984611851171337
39.35,-105.91667,-0.04488304093567251
62.904,-143.66683,-0.05555555555555556
40.26667,-105.58333,0.15160818713450291
43.27527,-111.49932,0.029678362573099398
42.34618,-112.31092,-0.045582706766917294
49.82139,-114.62194,1.5833333333333335
44.44722,-119.93062,-0.007738502099404345
44.31667,-109.23333,0.17857142857142863
43.43029,-115.03341,0.03128654970760232
42.71667,-122.0,0.30833333333333335
44.58623,-111.11627,0.13048902195608778
45.36235,-113.72468,0.7301764297750026
39.017,-120.215,-0.37821637426900584
47.85004,-117.06387,-0.1111111111111111
41.4,-106.28333,0.46527777777777796
44.33682,-116.33753,-0.06067251461988306
37.6,-105.2,-0.08128654970760232
46.89898,-113.45325,0.19122807017543858
51.43333,-116.16667,0.0620945608782435
49.27111,-120.11861,0.21783625730994155
40.683,-111.667,-0.17412280701754387
42.3,-105.65,0.08333333333333348
37.45,-107.66667,-0.0630116959064328
63.7,-131.16667,-0.1837431693989071
51.46667,-116.1,0.16885964912280702
35.2,-112.2,0.06885964912280697
36.13333,-105.53333,-0.06739766081871344
45.11667,-121.81667,-0.6288659793814432
41.96237,-117.33998,-0.09667858967807871
48.29644,-117.59376,0.3072562358276643
44.43338,-120.33583,-0.03144224196855776
47.13514,-121.45564,1.1984848484848487
43.98658,-121.44258,-0.1225726530065622
34.0,-109.51667,-0.03728070175438599
48.60304,-120.81124,0.18450292397660814
49.63333,-110.31667,0.05219298245614035
61.21467,-151.6285,-0.5466976264189887
48.86069,-118.39525,-0.005940175113107456
40.97852,-115.17215,-0.008040935672514621
67.96917,-149.7635,-0.09912280701754383
62.13245,-150.04682,-0.6965317919075145
44.0,-121.7,nan
39.65692,-110.37985,0.3616161616161616
47.88333,-120.43333,-0.0744047619047619
43.15,-111.0,0.013131313131313096
46.09252,-112.50535,-0.08903508771929823
36.26667,-109.0,-0.021491228070175433
45.8838,-113.32553,-0.02380952380952382
49.50834,-115.01695,0.13114035087719297
48.76658,-113.68895,-0.1612573099415204
67.63333,-148.2,nan
60.39023,-149.69345,-1.400602409638554
48.53439,-119.86241,-0.032858119324284736
61.06768,-149.4795,-2.979166666666666
47.94622,-113.75248,-0.2450292397660818
39.25305,-119.87717,0.0030659172202350603
42.01667,-115.0,nan
42.1109,-123.30163,0.07138694638694641
65.46217,-147.60667,-0.09225146198830407
46.70988,-110.22437,0.06476997578692494
49.81333,-120.88111,0.03479532163742691
42.93555,-110.52945,0.19459064327485381
40.7255,-115.2798,-0.055701754385964954
41.88467,-111.56882,0.003947368421052611
62.91667,-159.22333,-0.3594658248145921
52.19222,-117.08222,0.23698830409356728
51.68333,-116.38333,0.524561403508772
50.27111,-119.64389,0.0934210526315789
42.07192,-122.69167,-0.43538011695906437
49.79639,-119.18639,0.07090643274853801
40.36667,-106.73333,nan
33.1666,-107.86666,0.2275641025641026
46.66858,-110.33022,-0.1240079365079365
45.00565,-110.01406,-0.3444341658957755
49.11782,-115.68874,-0.02192982456140354
39.08438,-119.90348,-0.0033625730994151877
43.57033,-113.91257,-0.003654970760233914
45.17517,-117.31283,-1.2844933206861113
51.27111,-116.89806,0.09897660818713447
45.7,-114.61667,-0.049825174825174796
46.18333,-112.26667,0.14102564102564102
62.73333,-138.8,-0.03143274853801168
48.90922,-115.35612,0.25935672514619884
47.94842,-123.25858,0.24195906432748537
59.75,-134.96667,-0.12002923976608185
46.24212,-113.7725,0.21031746031746032
39.67707,-110.43462,0.6291666666666668
38.82,-120.037,-0.1826023391812866
44.56667,-117.0,-0.16767676767676773
47.4775,-110.61125,0.09970238095238095
44.65866,-111.09199,0.04532163742690056
66.2155,-150.25267,-0.15219298245614035
47.97792,-113.3395,1.0563186813186811
41.23333,-120.11667,-0.45
47.26667,-120.48333,nan
42.29532,-122.29413,-0.16447368421052633
48.67578,-121.78245,0.4290863043054743
42.08795,-122.69202,-0.49736842105263157
47.8562,-117.03552,-0.6781541084497671
47.48333,-120.96667,nan
49.74556,-120.54222,0.08274853801169592
47.28333,-120.36667,-1.833333333333333
48.63333,-121.8,1.3469396859386153
50.43413,-117.70104,-0.3051470588235292
64.74273,-148.3161,0.14766081871345024
44.10889,-104.06611,-0.032017543859649104
45.79737,-112.52047,-0.18713450292397657
46.58515,-113.57242,0.11652046783625729
51.41667,-116.18333,0.010496183206106872
48.68005,-114.66365,0.4153508771929824
44.48275,-111.27465,0.08508771929824559
63.68833,-158.81833,-0.7874771480804387
38.48323,-109.2896,-0.08815789473684209
39.34575,-117.13602,-0.014069264069264072
49.45,-114.96667,-0.2651515151515152
37.113,-118.837,0.12134502923976605
63.88667,-152.3045,-0.1497076023391813
45.32097,-121.7158,-0.7571428571428571
46.31637,-112.57837,0.16578947368421057
49.25,-116.5,nan
39.4147,-115.08305,0.0024311789347695976
50.66083,-117.96584,0.05423976608187134
44.92075,-115.95108,-0.2144736842105263
66.71667,-158.8,-0.2892156862745098
46.89093,-112.49857,0.13128654970760237
42.36467,-111.50605,0.03888888888888888
62.81667,-137.36667,-0.01885964912280701
44.71667,-121.73333,0.3704954954954953
41.15,-107.03333,-0.11959064327485375
40.53373,-115.45677,0.04225146198830408
45.21158,-117.6626,-0.1613631036099391
45.42775,-110.96027,0.05657894736842105
45.1041,-121.61189,-0.21335798763711725
61.9818,-147.001,-0.05373471557682083
40.98492,-110.85075,-0.06739766081871346
40.967,-122.867,-0.44096360628618697
62.93417,-146.96367,-0.2459580323357413
49.74072,-120.1881,0.34359086279644985
38.50515,-111.76745,-0.04312865497076023
41.98687,-120.71513,-0.13227201257861637
45.3333,-117.31666,0.007299031159989549
60.75567,-149.2425,-0.6865497076023391
44.96192,-111.29403,0.0792124542124542
65.157,-147.5945,0.018314726209463048
35.23333,-108.26667,0.005029585798816579
44.57924,-107.20068,-0.05416666666666667
45.17047,-109.47832,-0.011842105263157897
65.95,-137.36667,0.023684210526315804
64.9469,-145.52047,-0.17558746736292424
40.83333,-111.73333,2.625
47.32004,-121.33869,-0.2225146198830409
48.28333,-109.61667,0.032738095238095205
61.14183,-149.68783,-0.19970760233918128
45.43333,-121.66666,-2.678571428571428
48.24519,-118.52576,-0.025860104807473226
48.85,-119.73333,-0.01257309941520468
49.67225,-110.26181,0.06900584795321638
44.77665,-113.12217,-0.3268184908225698
38.92025,-120.03953,-0.08719979560551872
48.79698,-113.6705,0.1833333333333333
42.47742,-116.32585,-0.1204479645716233
46.14287,-114.44755,0.06854838709677417
61.48333,-136.26667,-0.08143274853801169
48.76454,-121.71815,1.7446346448645886
45.16825,-109.47167,0.30906432748538015
41.76667,-115.71667,nan
48.51729,-120.73517,-0.10906324252188898
49.86417,-120.86417,0.08026315789473686
47.68389,-113.99901,-0.9027777777777779
40.81666,-105.65,0.14795321637426898
46.45542,-112.28783,0.2513157894736842
48.77782,-121.40049,2.4701696237083253
36.78333,-105.23333,-0.008625730994152052
41.8927,-115.858,-0.06754385964912281
45.50871,-111.92288,0.60515873015873
51.54056,-116.05639,0.18681318681318684
43.54248,-111.04602,0.06520467836257313
42.3572,-120.22522,-0.04751461988304095
46.11192,-110.4696,-0.08571428571428572
62.04248,-145.4279,0.0017543859649122604
39.61153,-111.30493,-0.033479532163742685
47.57695,-113.31283,-0.10102339181286553
50.67778,-117.47444,-0.006432748538011722
40.4,-105.65,0.11286549707602338
44.92004,-111.05468,-0.02134502923976606
52.49949,-119.0484,nan
47.28333,-120.38333,-0.5138888888888888
42.47961,-119.71906,0.025562974600680816
62.93083,-157.8695,0.017015706806282727
45.32334,-111.37141,-0.3611111111111111
49.41761,-117.22808,-0.09254385964912279
39.08527,-114.89977,-0.09907120743034052
63.639,-158.03067,-0.14050334962882494
47.2008,-120.27735,0.02106227106227112
46.51875,-114.69123,-0.019154524729903893
65.15083,-147.56258,0.07114566719829878
42.71625,-123.20237,0.08534629484158156
46.47642,-110.72065,0.02543859649122807
46.12588,-113.30792,0.04722222222222222
45.26262,-110.4051,0.20814443005181346
66.69283,-150.66317,-0.20489101541733115
33.7,-109.2,0.03125
42.58333,-121.85,0.2541666666666667
45.45,-121.51667,-0.40278868813825613
44.35752,-112.6648,-0.00599415204678362
41.31667,-106.43333,-0.02207602339181287
49.27806,-114.36556,-0.24681802545579637
44.815,-116.69278,0.042251461988304075
47.9063,-116.9963,-0.19985380116959067
42.46667,-118.71667,-0.13333333333333333
35.26667,-111.75,0.025146198830409354
51.38972,-116.50833,0.05394736842105262
38.167,-119.942,-0.2219298245614035
66.24733,-152.36517,-0.039792663476874005
42.25,-120.61667,-0.012573099415204687
43.02503,-118.94785,-0.04373824240795485
47.72625,-116.49128,0.0185672514619883
65.048,-147.4315,0.03377192982456142
41.06662,-115.09613,-0.014494975302333514
42.35967,-110.7687,0.08918128654970763
44.18333,-107.25,0.19035087719298244
48.6067,-117.55251,-0.05000000000000001
58.1555,-133.72083,-0.510233918128655
61.11667,-138.88333,-0.024242424242424263
48.17484,-118.78983,-0.07400996112730804
51.59306,-117.66084,0.2948830409356726
44.75278,-107.60222,0.08947368421052629
37.38333,-106.4,-0.040058479532163745
41.8342,-119.87161,-0.03537727814682338
66.44367,-152.19917,-0.10205339203972148
33.41667,-105.96667,-0.3080015313935682
44.04572,-110.6895,0.07821637426900586
45.19405,-109.34548,-0.14583333333333331
39.0,-105.88333,0.0080141048244911
44.36667,-104.43333,0.004385964912280717
49.73333,-114.6,0.2176900584795321
49.49139,-119.08472,0.03114035087719298
60.51967,-149.489,-0.17412280701754387
42.11443,-118.04707,-0.17854709589507753
62.69133,-145.45067,0.018567251461988305
41.58245,-120.30202,0.07500000000000001
40.82,-111.813,-0.02339181286549707
52.9,-118.53333,-0.22614734299516923
50.71167,-117.20333,-0.3271929824561403
45.0855,-114.05675,-0.04314094058676104
35.01667,-111.45,0.05950912217735907
41.31667,-106.18333,0.22748538011695907
46.86552,-113.41537,0.07719298245614034
51.45,-115.75,0.27236842105263154
42.09777,-118.68588,-0.057957993930681996
65.8285,-144.06933,-0.044642857142857095
65.12423,-146.7339,-0.24690527448869745
46.2138,-113.2833,0.07543973471741637
62.82867,-146.62517,-0.15921052631578944
36.66667,-105.36667,-0.0005847953216374271
38.81667,-106.58333,0.161607458465889
65.36667,-138.3,0.18849206349206343
56.77717,-132.9205,-0.2919590643274853
60.19217,-154.32733,-0.05236842105263157
37.7045,-112.65033,-0.017781190926276003
50.63976,-116.92576,nan
60.98333,-153.91667,-0.00026106934001671265
37.55,-105.4,-0.18567251461988304
60.73467,-149.715,nan
46.6323,-110.3539,-0.05277777777777778
45.58557,-113.00555,-0.37225274725274726
44.55,-110.4,-0.028508771929824536
48.70442,-121.82442,1.1367389060887516
50.17389,-114.71,0.5233918128654971
66.538,-151.27967,0.1423976608187134
40.155,-120.542,-0.13757309941520462
40.76667,-105.5,-0.5833333333333334
44.51365,-123.55597,-0.022739794640621105
64.43333,-138.28333,-0.08581871345029239
43.98513,-121.53868,-0.6774853801169591
49.64864,-110.35147,0.06271929824561408
40.2,-105.56667,0.19909300618643183
50.6,-114.98333,0.33539731682146534
38.26355,-119.45635,0.025730994152046768
39.23305,-114.2429,-0.007148692810457515
36.24736,-115.63139,-0.168956043956044
41.42505,-111.83745,-0.03737373737373739
40.78333,-105.93333,0.0638888888888889
47.1771,-121.47255,1.182828282828283
47.93333,-121.58333,nan
46.01715,-112.42412,0.10584795321637427
61.22917,-149.64167,-0.005681209132811665
40.35,-106.1,0.23039280664545772
44.21194,-106.99722,-0.02324561403508772
49.03389,-120.84722,0.08040935672514621
62.32898,-147.28137,-0.37175628678437667
51.03524,-118.14664,0.7878787878787878
61.23333,-149.60833,-0.08011695906432749
42.18295,-111.67747,-0.2530701754385965
40.41667,-105.81667,0.4983982856132908
43.46258,-110.7654,0.2559941520467837
47.83333,-116.58333,-0.06139419674451519
47.99292,-113.56372,0.023809523809523805
45.45,-121.66666,-1.1666666666666665
61.34895,-142.69253,-0.1789010868971544
49.3611,-114.5158,0.38128654970760223
43.31895,-115.39513,-0.1720760233918128
47.05678,-112.595,-0.17063492063492067
38.16667,-106.6,-0.21812865497076023
44.4431,-112.22758,-0.10277777777777779
42.52388,-110.88305,0.025292397660818717
49.54222,-118.52528,0.024700750659362936
38.85952,-120.11362,0.02690058479532171
48.2,-120.91667,-2.6732305936073066
38.49728,-112.00683,-0.12417226786158826
43.9362,-111.00472,0.025146198830409403
40.58333,-105.63333,0.152046783625731
35.21667,-108.43333,-0.022543008005450525
44.20862,-110.66628,0.1735380116959064
48.85924,-121.43714,1.9112604714591859
47.97078,-123.49987,0.3133755142425662
44.34847,-107.0136,-0.035087719298245605
39.55828,-114.62748,0.012820512820512803
47.96132,-115.51945,0.02573099415204676
45.21759,-110.237,0.5986842105263157
40.76667,-111.61667,3.833333333333332
44.13352,-110.669,0.17383040935672514
44.46328,-112.615,-0.012719298245614024
44.65195,-113.75362,-0.1073552513464991
48.15678,-113.94637,0.6712121212121211
49.27111,-118.11861,0.1318713450292398
39.2377,-111.51967,0.047139908595016905
42.58612,-109.08583,-0.10804093567251462
45.1678,-109.30975,0.012529137529137502
47.24212,-114.37497,-0.02280361757105943
63.94283,-145.76883,0.031871345029239745
40.86682,-110.835,0.03168498168498171
42.21477,-122.37175,-0.1720018329405604
50.54222,-115.11861,0.13801169590643272
39.63417,-111.15393,-0.2280637254901961
44.47147,-112.98191,-0.39076576576576566
39.46175,-114.64947,0.015777249036936315
42.75,-123.18333,0.02032422935633285
39.353,-120.353,-0.25921052631578945
38.695,-119.983,-0.07616959064327482
58.267,-134.52533,-0.6600877192982455
40.15,-106.0,0.1546783625730994
45.21665,-113.50143,0.2860798731257209
37.128,-118.475,-0.6254385964912281
51.72861,-117.42362,-0.29049707602339175
48.77647,-113.67888,0.009962494139709335
39.9,-105.58333,0.010964912280701749
37.59627,-112.92122,-0.13347953216374267
40.88433,-110.53995,0.0355263157894737
48.87926,-121.25529,0.1270467836257309
48.41322,-113.95497,-0.06988304093567252
38.27597,-119.61128,-0.8121212121212119
48.82223,-113.713,-0.14900716145833331
37.86943,-109.44717,-0.1687134502923976
61.11315,-149.68345,-0.7626840168243953
48.30305,-113.32868,0.015277777777777796
39.13427,-111.3539,-0.3302293213149523
46.3638,-112.56682,-0.03640350877192984
47.70255,-112.88097,0.045906432748538006
48.75865,-113.69308,-0.1864035087719298
52.54333,-117.64806,0.1717836257309941
35.8,-105.8,-0.17543859649122806
44.9938,-113.44399,-0.5238095238095238
42.31023,-111.66895,0.0216374269005848
60.78048,-149.18312,-7.75
50.2,-114.55,0.15099772331592337
48.74869,-120.86084,0.008771929824561403
39.03333,-107.96667,nan
45.14533,-109.47802,0.2168925111285677
45.17367,-113.5846,-0.002976190476190418
42.1284,-121.12085,-0.15021929824561406
37.43333,-108.16667,-0.20164835164835163
46.51551,-121.02062,-0.17841742130228544
61.2375,-149.555,-0.12909356725146198
59.68783,-151.46717,-0.39005847953216366
47.39283,-115.6518,0.30657894736842106
50.03389,-115.23722,0.17002923976608192
43.18667,-122.86273,-0.0034367635506677117
35.7043,-105.80675,0.03388278388278391
39.3,-120.2,nan
49.27111,-119.32195,0.23552631578947372
47.49708,-116.12148,-0.3437134502923977
52.16667,-119.31667,-19.5
35.16667,-108.16667,-0.03688725490196078
46.8716,-113.27725,-0.526485788113695
64.28333,-133.25,-0.05467836257309941
39.08333,-106.53333,0.027339181286549705
42.02282,-120.1093,-0.22002923976608188
50.23688,-116.87946,0.23809523809523808
48.16385,-117.97074,0.015925680159256803
48.26205,-109.7016,0.05292397660818713
43.20715,-115.55343,0.010803424092409244
64.86018,-147.78888,-0.16437728937728938
48.7,-115.91667,-0.048611111111111105
46.43545,-112.19277,-0.11309523809523807
39.78333,-106.01667,-0.012573099415204661
45.87045,-112.82683,0.11491228070175435
43.265,-115.59167,-0.04343453590785906
41.077,-122.938,-0.3875672043010752
36.44,-118.255,-0.04225146198830409
45.15012,-109.3457,0.09324009324009325
44.17833,-121.9088,0.009629768137621527
39.78333,-105.78333,0.11988304093567251
40.88407,-117.58787,0.06293706293706296
43.73333,-116.12778,-0.13508771929824562
62.07222,-142.05275,-0.20267354852804634
37.41667,-108.05,-0.2548159614723083
37.8,-108.26667,-0.06434918464993651
45.73107,-114.48075,-0.008158508158508177
44.83333,-121.71667,-0.09795321637426903
45.95,-113.46667,0.029503105590062143
61.89533,-146.04517,-0.1973684210526315
37.74482,-112.83893,-0.03406432748538012
39.28333,-120.36667,0.025730994152046736
36.1,-108.83333,-0.07397660818713449
39.63333,-105.9,0.08347953216374271
45.49402,-111.99318,0.029470616381747788
47.01957,-114.01377,-0.08150183150183156
65.76517,-149.39017,-0.04605263157894737
65.11332,-144.9157,-0.11495155799947629
38.313,-119.607,0.2995614035087718
39.3485,-112.1919,-0.26720269259536283
55.7,-131.18333,nan
35.25,-112.06667,0.03230994152046786
62.1345,-147.625,-0.3008771929824563
62.06667,-140.8,0.05497185126996597
44.88162,-112.13507,-0.33974358974358976
40.633,-111.633,-0.04356725146198825
49.99972,-119.20333,0.005701754385964917
50.85,-115.36667,-0.010952522549311216
38.08333,-119.25,-0.12149122807017546
45.04575,-109.90987,-0.12786259541984735
59.86088,-151.31478,0.3987179487179487
41.4,-122.05,0.03319209039548022
42.2,-121.13333,0.12671821305841927
59.56667,-133.7,-0.05745614035087719
36.18333,-108.95,-0.04269005847953216
44.62694,-107.37583,0.14122807017543862
61.25,-149.51667,-0.19517543859649128
42.71667,-122.4,0.6435742971887549
48.91453,-114.76663,0.1498015873015873
51.05084,-116.13556,-0.5380876634853304
37.05,-106.41667,-0.18567251461988307
39.0,-120.13333,nan
48.33333,-116.01667,3.172065784643304e-17
41.33981,-116.98044,-0.0942982456140351
40.4,-105.63333,0.15467836257309936
50.70553,-114.98994,0.23172514619883042
37.33333,-105.08333,-0.022368421052631583
41.922,-111.46817,-0.029970760233918144
65.5525,-147.6655,-0.06535087719298242
50.14733,-119.0534,0.14000034463744143
37.74797,-112.77495,-0.11432748538011693
43.96422,-111.05845,-0.10073099415204681
60.40667,-149.67817,-0.1555451127819549
59.35833,-151.9,-6.083333333333333
37.724,-119.143,0.21067251461988307
50.06778,-119.74555,0.11347435301410197
35.7,-109.2,0.05119047619047619
44.11667,-118.13333,-0.09283767671606204
40.01667,-120.3,-0.009210526315789445
59.6625,-151.65,-0.1152046783625731
46.86945,-113.45938,0.10818713450292396
49.89806,-120.01695,0.36856725146198827
37.8,-106.8,-0.08903508771929824
40.83333,-111.76667,-1.458333333333333
47.46182,-113.52312,-0.1580409356725146
51.25417,-117.49139,0.07280701754385957
45.1342,-114.06688,0.08230994152046779
47.91727,-112.8238,-0.24999999999999992
45.3092,-111.3537,0.07543859649122814
49.99365,-114.92046,-0.16666666666666674
40.32443,-115.56217,-0.06476608187134505
35.0,-111.68333,0.04363877673097052
41.56667,-119.81667,0.1833333333333333
56.78133,-132.93783,-0.7211057947900054
43.82028,-110.26862,0.11461988304093566
38.804,-120.216,0.15862573099415217
65.4325,-145.5495,0.08947368421052632
43.78333,-114.41667,nan
48.38333,-119.46667,nan
44.91667,-110.61667,0.029824561403508747
37.68025,-112.85653,-0.21826625386996906
41.22103,-111.35978,0.00505050505050504
46.83952,-110.69207,0.0342058056099152
37.66667,-106.86667,0.0990675990675991
62.79717,-149.9805,-0.27032163742690063
37.35,-105.23333,nan
45.18416,-111.0833,0.3252923976608185
61.77083,-149.2075,-0.08552631578947371
40.91743,-111.09342,0.06098901098901099
62.6065,-144.62783,0.06944444444444445
44.45,-110.81667,0.08114035087719294
48.85,-118.36667,-0.09449052132701423
61.74967,-150.88967,-0.22807017543859648
48.9166,-119.7833,0.014912280701754401
44.78742,-113.3491,0.0698830409356725
51.50834,-118.52528,0.8841514143094842
43.81191,-118.78565,-0.02381808017888516
36.715,-118.842,-0.14298245614035088
49.66453,-110.23758,0.007894736842105277
40.60175,-115.37683,-0.5989766081871344
38.88333,-107.0,0.09134190526687867
67.25312,-150.1836,-0.24306744265662442
52.11861,-119.28806,-0.04591590140164325
42.09762,-114.17287,-0.0192982456140351
66.27117,-146.515,-0.03439202575532442
40.762,-121.195,-0.006415142276422757
44.58907,-111.82498,0.018546747967479675
41.0457,-115.0965,0.2419590643274854
51.69472,-118.44055,0.16520467836257302
36.86667,-106.23333,0.00599415204678362
46.3,-113.16667,-0.43154761904761896
61.46667,-131.46667,0.05482456140350876
44.01048,-121.66385,-0.9822924849437026
39.955,-120.538,-0.22660818713450295
62.45015,-147.15638,-0.65
40.71587,-111.62047,-0.027485380116959047
66.14183,-152.12867,-0.05499734183944712
51.41667,-116.23333,0.07506361323155215
44.92462,-111.36107,0.09532163742690056
48.12672,-115.62333,-0.15277777777777785
40.46233,-112.25295,-0.12843137254901962
61.72583,-145.00533,-0.024269005847953214
38.618,-120.228,-0.43407426332822363
43.6748,-109.3774,0.14400584795321633
64.06342,-141.92315,0.02309941520467835
47.38333,-121.45,-6.708333333333334
64.06667,-139.4,-0.009941520467836275
63.6975,-157.62917,0.04941520467836258
61.38333,-139.05,0.0033625730994152
46.09713,-113.13038,0.15707434052757793
47.40627,-110.57447,0.06220238095238093
64.68088,-145.71867,-0.026021209740769834
45.84997,-112.45567,0.07456140350877193
37.63385,-112.16947,-0.09839181286549707
39.49672,-111.72523,-0.0373834280201522
41.18333,-106.16667,0.06929824561403511
48.524,-120.989,-0.27178362573099424
39.2,-106.13333,-0.020029239766081872
44.97033,-118.18278,-0.1706598586017282
63.72617,-148.984,-0.17273206751054854
47.96252,-115.53938,0.04751461988304094
41.33333,-106.2,0.1255847953216374
48.944,-121.029,-0.1494849509093836
39.3523,-119.9005,0.1043859649122807
38.2057,-119.3494,0.0029239766081871395
47.05525,-121.00603,-0.2783625730994152
38.993,-120.13117,0.5194270988204975
39.25,-106.5,0.33983979229989875
38.96715,-114.28668,-0.0017543859649122651
39.88333,-107.6,0.5563241106719367
45.43292,-109.99052,0.486013986013986
46.47535,-112.18742,0.24883040935672515
49.49139,-120.79639,0.04312865497076021
47.01667,-121.46667,nan
51.40667,-118.35584,0.16008771929824558
62.1,-146.05,-0.042543859649122794
41.408,-115.4464,-0.0641812865497076
49.02728,-114.05294,-0.03289473684210525
37.8,-107.93333,-0.03742603550295859
62.464,-151.46267,-0.4571637426900585
47.91328,-112.92473,-0.09254385964912283
43.2,-122.86667,-0.04521326835165665
36.45,-109.1,-0.05087719298245614
60.28333,-134.18333,0.016520467836257293
60.61712,-149.53138,-0.8494701348747594
39.485,-120.425,-0.16374269005847958
42.41903,-111.23443,0.18830409356725145
41.67167,-116.07033,-0.14254385964912278
47.22088,-121.0522,-0.005801842268007672
39.85,-105.81667,-0.04093567251461987
40.61666,-105.83333,-0.06287878787878788
48.71667,-115.96667,-0.6250000000000001
46.09907,-112.3443,0.013552479815455579
37.53333,-106.8,-0.2057103543171655
33.01667,-107.86667,-0.625
44.39833,-107.38583,0.1046783625730994
66.41667,-136.75,-0.008333333333333352
43.3042,-111.79087,0.05365497076023392
44.87189,-111.34391,-0.028654970760233933
38.06667,-112.16667,0.8898809523809523
42.49475,-116.43665,-0.17099358974358975
47.98288,-114.3543,0.03728070175438598
42.7674,-112.10648,0.07573099415204679
39.06667,-106.01667,0.0422514619883041
42.66667,-122.06667,0.45833333333333337
43.71417,-109.63667,0.15584795321637424
45.47072,-113.09773,0.06125730994152047
65.48467,-144.625,-0.014473684210526312
48.95642,-114.75603,0.1323099415204677
40.6745,-111.21798,0.04356725146198829
45.75995,-113.17962,-0.24452591402169535
63.14017,-149.42967,-0.17982456140350866
61.79167,-149.2,-0.135672514619883
46.71088,-112.53513,0.11564327485380113
48.97523,-115.81915,0.10277777777777779
48.1982,-114.72658,0.006871345029239754
43.24508,-122.2932,-0.11346448645886564
49.06372,-113.55667,0.16504285522967724
50.51667,-114.83333,0.21553167269318335
42.45,-120.78333,-0.007602339181286518
41.78333,-116.03333,nan
55.63167,-131.215,0.06684981684981688
47.01667,-120.85,-0.0297619047619047
37.61667,-105.36667,-0.18421052631578946
40.86235,-115.12092,-0.1304093567251462
48.43412,-113.93725,0.1286340852130326
44.32117,-116.40803,0.021171861693067628
63.7,-134.3,-0.11652046783625729
41.86423,-115.08212,-0.034435630828599
42.08885,-122.71397,-0.48406432748538014
66.175,-152.9375,-0.22348077987175727
63.80317,-146.472,0.01206058339566192
37.35,-106.55,-0.08157894736842103
45.40125,-110.95758,0.10119047619047616
48.26667,-118.26667,-0.5333333333333332
63.7058,-142.2711,-0.05540935672514619
45.1286,-111.86217,-0.11666666666666665
64.9,-146.61933,-0.03640350877192984
36.33333,-109.05,-0.05555555555555556
61.51667,-128.26667,-0.0228174603174603
46.13333,-114.5,-0.38461538461538464
62.93583,-158.44167,0.007575757575757522
38.9991,-120.1307,-0.0567251461988304
41.26873,-116.80332,0.03786979908242366
38.48333,-106.33333,0.5495614035087719
60.669,-149.47933,-0.47412280701754395
43.55583,-113.7198,-0.05935672514619882
52.21132,-119.43684,-0.6534329140461218
38.6,-119.91667,-0.18918128654970762
65.07748,-145.87363,-0.18606759501015377
47.61997,-116.52268,-0.09181286549707598
47.87257,-112.93057,0.10584795321637426
39.53333,-106.21667,0.0711988304093567
48.04654,-118.7093,-0.052178108629721526
49.99972,-118.88111,0.1929824561403509
48.57815,-121.0251,0.003216374269005843
48.8571,-119.79574,-0.1082413826774729
51.41667,-116.21667,0.17470760233918128
55.65333,-131.21333,0.20952380952380947
48.20527,-120.91909,0.5583018110958274
63.30067,-143.008,-0.07076023391812863
38.7,-106.36667,0.08552631578947369
47.86667,-116.58333,-0.48333333333333334
48.35095,-116.83633,0.06345029239766081
46.5596,-111.28973,0.1858974358974359
40.48307,-112.1966,-0.007440476190476196
44.84777,-113.80287,-0.05440685045948202
45.01788,-111.8456,0.27139639639639657
